{
    "userTypeCode" : {"title": "User Type Code", "width": "25%"},
    "userTypeName" : {"title": "User Type", "width": "25%"},
    "countryName" : {"title": "Country", "width": "25%"},
    "active" : {"title": "Status", "width": "25%"}
} 


