[
{
"price_list_id":"1546859",
"price_list_name":"Price 001",
"price_list_code":"PP001",
"description":"Lorem Ipsum",
"points":"3",
"no_installments":"6",
"total_sales":"10000",
"comm_base":"3",
"country":"Singapore",
"Status":"Active"
},
{
"price_list_id":"1546860",
"price_list_name":"Price 001",
"price_list_code":"PP001",
"description":"Lorem Ipsum",
"points":"3",
"no_installments":"6",
"total_sales":"10000",
"comm_base":"3",
"country":"Singapore",
"Status":"Active"
},
{
"price_list_id":"1546869",
"price_list_name":"Price 001",
"price_list_code":"PP001",
"description":"Lorem Ipsum",
"points":"3",
"no_installments":"6",
"total_sales":"10000",
"comm_base":"3",
"country":"Singapore",
"Status":"Active"
},
{
"price_list_id":"1546879",
"price_list_name":"Price 001",
"price_list_code":"PP001",
"description":"Lorem Ipsum",
"points":"3",
"no_installments":"6",
"total_sales":"10000",
"comm_base":"3",
"country":"Singapore",
"Status":"Active"
},
{
"price_list_id":"1546859",
"price_list_name":"Price 001",
"price_list_code":"PP001",
"description":"Lorem Ipsum",
"points":"3",
"no_installments":"6",
"total_sales":"10000",
"comm_base":"3",
"country":"Singapore",
"Status":"Active"
},
{
"price_list_id":"1546859",
"price_list_name":"Price 001",
"price_list_code":"PP001",
"description":"Lorem Ipsum",
"points":"3",
"no_installments":"6",
"total_sales":"10000",
"comm_base":"3",
"country":"Singapore",
"Status":"Active"
}
]