{
     "priceCode" : "Price Code",
     "priceListName" : "Price List Name",
     "priceListCode" : "Price List Code",
     "description" : "Description",
     "points" : "Points",
     "noInstallments" : "No of Instalments",
     "totalSales" : "Total Sales",
     "commBase" : "Comm. Base",
     "countryName" : "Country",
     "active" : "Status"
}