[{
	"country_id" : "110011",
	"country" : "India",
	"state" : "West Bengal",
	"cities" : "Kolkata",
	"Status" : "Active"
},{
	"country_id" : "110011",
	"country" : "India",
	"state" : "West Bengal",
	"cities" : "Kolkata",
	"Status" : "Active"
},{
	"country_id" : "110011",
	"country" : "India",
	"state" : "West Bengal",
	"cities" : "Kolkata",
	"Status" : "Active"
},{
	"country_id" : "110011",
	"country" : "India",
	"state" : "West Bengal",
	"cities" : "Kolkata",
	"Status" : "Active"
},{
	"country_id" : "110011",
	"country" : "India",
	"state" : "West Bengal",
	"cities" : "Kolkata",
	"Status" : "Active"
},{
	"country_id" : "110011",
	"country" : "India",
	"state" : "West Bengal",
	"cities" : "Kolkata",
	"Status" : "Active"
},{
	"country_id" : "110011",
	"country" : "India",
	"state" : "West Bengal",
	"cities" : "Kolkata",
	"Status" : "Active"
},{
	"country_id" : "110011",
	"country" : "India",
	"state" : "West Bengal",
	"cities" : "Kolkata",
	"Status" : "Active"
},{
	"country_id" : "110011",
	"country" : "India",
	"state" : "West Bengal",
	"cities" : "Kolkata",
	"Status" : "Active"
},{
	"country_id" : "110011",
	"country" : "India",
	"state" : "West Bengal",
	"cities" : "Kolkata",
	"Status" : "Active"
}
]