{
 "userName": null,
 "statusCode": 200,
 "message": "Success",
 "userList": [
   {
     "userId": "1",
     "name": "Sourav",
     "ic": "2",
     "addressLine1": null,
     "addressLine2": null,
     "city": null,
     "state": null,
     "country": "India",
     "pin": null,
     "phoneNumber": "9038842297",
     "mobileNumber": null,
     "emailId": "sourav.basak2@tcs.com",
     "userType": "Administrator",
     "userTypeList": null,
     "designation": "Admin",
     "active": "Active",
     "role": 0,
     "roleList": null,
     "divisionCode": 0,
     "divisionName": "Division One",
     "regionName": null,
     "supervisorName": null,
     "supervisorCode": 0,
     "message": null,
     "status": 0
   },
   {
     "userId": "2",
     "name": "New Update 2",
     "ic": "IC79HY89",
     "addressLine1": null,
     "addressLine2": null,
     "city": null,
     "state": null,
     "country": "Singapore",
     "pin": null,
     "phoneNumber": "9856585800",
     "mobileNumber": null,
     "emailId": "test223@gmail.com",
     "userType": "Verification Officer",
     "userTypeList": null,
     "designation": "VO",
     "active": "Inactive",
     "role": 0,
     "roleList": null,
     "divisionCode": 0,
     "divisionName": "DIVISION TWO",
     "regionName": null,
     "supervisorName": null,
     "supervisorCode": 0,
     "message": null,
     "status": 0
   }
 ]
}