[{
"DivisionCode":"8000123",
"div_Name":"div001",
"country":"India",
"Status":"Active"
},
{
"DivisionCode":"8000123",
"div_Name":"div001",
"country":"India",
"Status":"Active"
},
{
"DivisionCode":"8000123",
"div_Name":"div001",
"country":"India",
"Status":"Active"
},
{
"DivisionCode":"8000123",
"div_Name":"div001",
"country":"India",
"Status":"Active"
},
{
"DivisionCode":"8000123",
"div_Name":"div001",
"country":"India",
"Status":"Active"
},
{
"DivisionCode":"8000123",
"div_Name":"div001",
"country":"India",
"Status":"Active"
},
{
"DivisionCode":"8000123",
"div_Name":"div001",
"country":"India",
"Status":"Active"
}
]