{
 "userCode": {"title": "User Code", "width": "10%"},
 "name": {"title": "Name", "width": "10%"},
 "ic": {"title": "IC", "width": "10%"},
 "userType": {"title": "User Type", "width": "10%"},
 "designation": {"title": "Desg", "width": "10%"},
 "emailId": {"title": "Email", "width": "10%"},
 "phoneNumber": {"title": "Phone", "width": "10%"},
 "country": {"title": "Country", "width": "10%"},
 "divisionName": {"title": "Div Code", "width": "10%"},
 "regionName": {"title": "Reg Code", "width": "10%"},
 "active":{"title": "Status", "width": "10%"}
}