{
    "contractCode" : {"title": "Contract Code", "width": "10%"},
    "custName" : {"title": "Customer Name", "width": "15%"},
    "custAddr" : {"title": "Address", "width": "15%"},
    "fiscalYear" : {"title": "Fiscal Week/Year", "width": "10%"},
    "shipmentStatus" : {"title": "Shipment Status", "width":"10%"},
    "verificationOffcierName" : {"title": "Verification Officer", "width": "15%"},
    "assign" : {"title": "Action", "width": "10%"}
}
