{
     "commissionRateCode" : "Commission Code",
     "commissionRateName" : "Commission Rate Name",
     "userTypeName" : "User Type",
     "designation" : "Designation",
     "commission" : "Commission%",
     "active" : "Status"
}
